{
  "content": [
    {
      "id": 8,
      "name": "Even",
      "birthDate": 149967316827
    },
    {
      "id": 7,
      "name": "Even",
      "birthDate": "2017-07-10T07:52:48.270+0000"
    },
    {
      "id": 6,
      "name": "Even",
      "birthDate": "2017-07-10T07:52:48.270+0000"
    },
    {
      "id": 5,
      "name": "Even",
      "birthDate": "2017-07-10T07:52:48.270+0000"
    }
  ],
  "pageable": {
    "sort": {
      "sorted": true,
      "unsorted": false
    },
    "offset": 4,
    "pageSize": 4,
    "pageNumber": 1,
    "paged": true,
    "unpaged": false
  },
  "totalPages": 3,
  "totalElements": 12,
  "last": false,
  "size": 4,
  "number": 1,
  "numberOfElements": 4,
  "sort": {
    "sorted": true,
    "unsorted": false
  },
  "first": false
}
