{
  "_embedded": {
    "users": [
      {
        "name": "Even",
        "birthDate": "2017-07-10T07:52:48.270+0000"
      },
      {
        "name": "Even",
        "birthDate": "2017-07-10T07:52:48.270+0000"
      },
      {
        "name": "Even",
        "birthDate": "2017-07-10T07:52:48.270+0000"
      },
      {
        "name": "Even",
        "birthDate": "2017-07-10T07:52:48.270+0000"
      }
    ]
  },
  "_links": {
    "first": {
      "href": "http://localhost:8080/users-with-hateoas?page=0&size=4&sort=id,desc"
    },
    "prev": {
      "href": "http://localhost:8080/users-with-hateoas?page=0&size=4&sort=id,desc"
    },
    "self": {
      "href": "http://localhost:8080/users-with-hateoas?page=1&size=4&sort=id,desc"
    },
    "next": {
      "href": "http://localhost:8080/users-with-hateoas?page=2&size=4&sort=id,desc"
    },
    "last": {
      "href": "http://localhost:8080/users-with-hateoas?page=2&size=4&sort=id,desc"
    }
  },
  "page": {
    "size": 4,
    "totalElements": 12,
    "totalPages": 3,
    "number": 1
  }
}
